{
  "project_info": {
    "project_number": "176529509147",
    "firebase_url": "https://incruste-e5715.firebaseio.com",
    "project_id": "incruste-e5715",
    "storage_bucket": "incruste-e5715.appspot.com"
  },
  "client": [
    {
      "client_info": {
        "mobilesdk_app_id": "1:176529509147:android:c2379ff5fd350d3c",
        "android_client_info": {
          "package_name": "com.apptn.incruste"
        }
      },
      "oauth_client": [
        {
          "client_id": "176529509147-djhk16gd5d3pkmrn8na82k6mgkfgvspb.apps.googleusercontent.com",
          "client_type": 1,
          "android_info": {
            "package_name": "com.apptn.incruste",
            "certificate_hash": "75635607cef5dfccd31f76d192850b6747725095"
          }
        },
        {
          "client_id": "176529509147-sifqu3j365mr4dv565sal6u6c5fghmnc.apps.googleusercontent.com",
          "client_type": 3
        }
      ],
      "api_key": [
        {
          "current_key": "AIzaSyD8CbA_hshTt_yRwZLPPSJpZ2-Dm3qhGio"
        }
      ],
      "services": {
        "analytics_service": {
          "status": 1
        },
        "appinvite_service": {
          "status": 2,
          "other_platform_oauth_client": [
            {
              "client_id": "176529509147-sifqu3j365mr4dv565sal6u6c5fghmnc.apps.googleusercontent.com",
              "client_type": 3
            }
          ]
        },
        "ads_service": {
          "status": 2
        }
      }
    }
  ],
  "configuration_version": "1"
}